actionlevel,hostilitylevel,country,severity,fatality,countrycode
20,5,Australia,100,2,AUL
8,3,Azerbaijan,45,1,AZE
16,4,Bulgaria,100,13,BUL
1,2,Czech Republic,65,1,CZR
7,3,Denmark,65,7,DEN
1,2,Estonia,100,2,EST
0,1,Georgia,65,5,GRG
1,2,Hungary,100,1,HUN
0,1,Iraq,75,0,IRQ
16,4,Italy,100,33,ITA
1,2,Latvia,100,3,LAT
7,3,Netherlands,55,2,NTH
20,5,Poland,75,23,POL
0,1,South Korea,45,1,ROK
13,4,Romania,45,3,ROM
1,2,Slovakia,45,4,SLO
15,4,Spain,55,11,SPN
0,1,Thailand,45,2,THI
15,4,United Kingdom,75,179,UKG
0,1,Ukraine,55,18,UKR
20,5,United States,100,4486,USA
