country,year,population,poppercent
Australia,1988,16532200,1
Belgium,1988,9901664,0.2
Canada,1988,26895000,1
France,1988,57836486,0.4
Germany,1988,78144619,0.6
Iraq,1988,16651807,1
Italy,1988,56629288,0.07
Jordan,1988,3252672,3.3
Kuwait,1988,2038885,1
Niger,1988,7540253,3
Pakistan,1988,101474835,2
Qatar,1988,443794,3
Saudi Arabia,1988,15155223,3
Spain,1988,38766939,0.1
Syria,1988,11719071,4
Turkey,1988,52053704,2
United Arab Emirates,1988,1655849,5
United Kingdom,1988,56928327,0.1
United States,1988,244499000,1
Australia,1989,16814400,1.7
Belgium,1989,9937697,0.4
Canada,1989,27379000,1.8
France,1989,58182702,1
Germany,1989,78751283,1
Iraq,1989,17040190,2.3
Italy,1989,56671781,0.1
Jordan,1989,3395023,4.4
Kuwait,1989,2096932,2.8
Niger,1989,7768995,3
Pakistan,1989,104588490,3.1
Qatar,1989,461870,4.1
Saudi Arabia,1989,15755944,4
Spain,1989,38827764,0.2
Syria,1989,12080444,3.1
Turkey,1989,52992429,1.8
United Arab Emirates,1989,1756043,6.1
United Kingdom,1989,57076711,0.3
United States,1989,246819000,0.9
Australia,1990,17065100,1.5
Belgium,1990,9967379,0.3
Canada,1990,27791000,1.5
France,1990,58512808,0.6
Germany,1990,79433029,1
Iraq,1990,17469005,2.5
Italy,1990,56719240,0.1
Jordan,1990,3560582,4.9
Kuwait,1990,2099615,0.1
Niger,1990,8012861,3.1
Pakistan,1990,107678614,3
Qatar,1990,476445,3.2
Saudi Arabia,1990,16326815,3.6
Spain,1990,38867322,0.1
Syria,1990,12446171,3
Turkey,1990,53921699,1.8
United Arab Emirates,1990,1860174,5.9
United Kingdom,1990,57247586,0.3
United States,1990,249623000,1.1
Australia,1991,17284000,1.3
Belgium,1991,10004486,0.4
Canada,1991,28171682,1.4
France,1991,58559312,0.1
Germany,1991,80013896,0.7
Iraq,1991,17942715,2.7
Italy,1991,56758521,0.1
Jordan,1991,3753433,5.4
Kuwait,1991,2035661,-3
Niger,1991,8272976,3.2
Pakistan,1991,110730420,2.8
Qatar,1991,487491,2.3
Saudi Arabia,1991,16867829,3.3
Spain,1991,38966376,0.3
Syria,1991,12815219,3
Turkey,1991,54840531,1.7
United Arab Emirates,1991,1970026,5.9
United Kingdom,1991,57424897,0.3
United States,1991,252981000,1.3
Australia,1992,17495000,1.2
Belgium,1992,10045158,0.4
Canada,1992,28519597,1.2
France,1992,58851216,0.5
Germany,1992,80624598,1
Iraq,1992,18458187,2.9
Italy,1992,56797087,0.1
Jordan,1992,3968198,5.7
Kuwait,1992,2013668,-1.1
Niger,1992,8549424,3.3
Pakistan,1992,113747135,2.7
Qatar,1992,495517,1.6
Saudi Arabia,1992,17378833,3
Spain,1992,39157685,0.5
Syria,1992,13187085,2.9
Turkey,1992,55748875,1.7
United Arab Emirates,1992,2086639,5.9
United Kingdom,1992,57580402,0.3
United States,1992,256514000,1.4
Australia,1993,17667000,1
Belgium,1993,10084475,0.4
Canada,1993,28833410,1.1
France,1993,59106766,0.4
Germany,1993,81156363,0.7
Iraq,1993,19011917,3
Italy,1993,56831821,0.1
Jordan,1993,4189431,5.6
Kuwait,1993,1932099,-4.1
Niger,1993,8842415,3.4
Pakistan,1993,116749560,2.6
Qatar,1993,501566,1.2
Saudi Arabia,1993,17859750,2.8
Spain,1993,39361262,0.5
Syria,1993,13564167,2.9
Turkey,1993,56653729,1.6
United Arab Emirates,1993,2207405,5.8
United Kingdom,1993,57718614,0.2
United States,1993,259919000,1.3
Australia,1994,17855000,1.1
Belgium,1994,10115603,0.3
Canada,1994,29111906,1
France,1994,59327194,0.4
Germany,1994,81438348,0.3
Iraq,1994,19597239,3.1
Italy,1994,56843400,0
Jordan,1994,4395953,4.9
Kuwait,1994,1787239,-7.5
Niger,1994,9151763,3.5
Pakistan,1994,119769556,2.6
Qatar,1994,507095,1.1
Saudi Arabia,1994,18311090,2.5
Spain,1994,39549108,0.5
Syria,1994,13949697,2.8
Turkey,1994,57564132,1.6
United Arab Emirates,1994,2328686,5.5
United Kingdom,1994,57865745,0.3
United States,1994,263126000,1.2
Australia,1995,18072000,1.2
Belgium,1995,10136811,0.2
Canada,1995,29354000,0.8
France,1995,59541900,0.4
Germany,1995,81678051,0.3
Iraq,1995,20208387,3.1
Italy,1995,56844303,0
Jordan,1995,4572904,4
Kuwait,1995,1610651,-9.9
Niger,1995,9477333,3.6
Pakistan,1995,122829148,2.6
Qatar,1995,513455,1.3
Saudi Arabia,1995,18735841,2.3
Spain,1995,39724050,0.4
Syria,1995,14345492,2.8
Turkey,1995,58486381,1.6
United Arab Emirates,1995,2448820,5.2
United Kingdom,1995,58019030,0.3
United States,1995,266278000,1.2
Australia,1996,18311000,1.3
Belgium,1996,10156637,0.2
Canada,1996,29671900,1.1
France,1996,59753098,0.4
Germany,1996,81914831,0.3
Iraq,1996,20845893,3.2
Italy,1996,56860281,0
Jordan,1996,4716373,3.1
Kuwait,1996,1631740,1.3
Niger,1996,9819964,3.6
Pakistan,1996,125938339,2.5
Qatar,1996,522304,1.7
Saudi Arabia,1996,19131578,2.1
Spain,1996,39889852,0.4
Syria,1996,14755286,2.9
Turkey,1996,59423208,1.6
United Arab Emirates,1996,2571020,5
United Kingdom,1996,58166950,0.3
United States,1996,269394000,1.2
